0 info it worked if it ends with ok
1 verbose cli [ 'C:\\Program Files\\nodejs\\node.exe',
1 verbose cli   'C:\\Users\\ARGUDI7\\AppData\\Roaming\\npm\\node_modules\\npm\\bin\\npm-cli.js',
1 verbose cli   'start' ]
2 info using npm@4.1.1
3 info using node@v6.9.2
4 verbose run-script [ 'prestart', 'start', 'poststart' ]
5 info lifecycle test-inferno@0.1.0~prestart: test-inferno@0.1.0
6 silly lifecycle test-inferno@0.1.0~prestart: no script for prestart, continuing
7 info lifecycle test-inferno@0.1.0~start: test-inferno@0.1.0
8 verbose lifecycle test-inferno@0.1.0~start: unsafe-perm in lifecycle true
9 verbose lifecycle test-inferno@0.1.0~start: PATH: C:\Users\ARGUDI7\AppData\Roaming\npm\node_modules\npm\bin\node-gyp-bin;C:\Users\ARGUDI7\Verizon\ETMS\test-inferno\node_modules\.bin;C:\program files\Git\mingw64\bin;C:\program files\Git\usr\bin;C:\Users\ARGUDI7\bin;C:\ProgramData\Oracle\Java\javapath;C:\Program Files (x86)\Intel\iCLS Client;C:\Program Files\Intel\iCLS Client;C:\Windows\system32;C:\Windows;C:\Windows\System32\Wbem;C:\Windows\System32\WindowsPowerShell\v1.0;C:\Program Files\Intel\Intel(R) Management Engine Components\DAL;C:\Program Files (x86)\Intel\Intel(R) Management Engine Components\DAL;C:\Program Files\Intel\Intel(R) Management Engine Components\IPT;C:\Program Files (x86)\Intel\Intel(R) Management Engine Components\IPT;C:\Program Files (x86)\Enterprise Vault\EVClient\x64;C:\Program Files (x86)\Sennheiser\SoftphoneSDK;C:\Program Files\Java\jre8\bin;C:\Program Files\nodejs;C:\Program Files\Cloud Foundry;C:\Program Files (x86)\scala\bin;C:\Users\ARGUDI7\AppData\Roaming\npm;C:\program files\nodejs;C:\program files\apache-maven-3.3.9\bin;C:\Verizon\gradle\gradle-3.2.1\bin;C:\Program Files\Docker Toolbox
10 verbose lifecycle test-inferno@0.1.0~start: CWD: C:\Users\ARGUDI7\Verizon\ETMS\test-inferno
11 silly lifecycle test-inferno@0.1.0~start: Args: [ '/d /s /c', 'inferno-scripts start' ]
12 silly lifecycle test-inferno@0.1.0~start: Returned: code: 3221225786  signal: null
13 info lifecycle test-inferno@0.1.0~start: Failed to exec start script
14 verbose stack Error: test-inferno@0.1.0 start: `inferno-scripts start`
14 verbose stack Exit status 3221225786
14 verbose stack     at EventEmitter.<anonymous> (C:\Users\ARGUDI7\AppData\Roaming\npm\node_modules\npm\lib\utils\lifecycle.js:279:16)
14 verbose stack     at emitTwo (events.js:106:13)
14 verbose stack     at EventEmitter.emit (events.js:191:7)
14 verbose stack     at ChildProcess.<anonymous> (C:\Users\ARGUDI7\AppData\Roaming\npm\node_modules\npm\lib\utils\spawn.js:40:14)
14 verbose stack     at emitTwo (events.js:106:13)
14 verbose stack     at ChildProcess.emit (events.js:191:7)
14 verbose stack     at maybeClose (internal/child_process.js:877:16)
14 verbose stack     at Process.ChildProcess._handle.onexit (internal/child_process.js:226:5)
15 verbose pkgid test-inferno@0.1.0
16 verbose cwd C:\Users\ARGUDI7\Verizon\ETMS\test-inferno
17 error Windows_NT 6.1.7601
18 error argv "C:\\Program Files\\nodejs\\node.exe" "C:\\Users\\ARGUDI7\\AppData\\Roaming\\npm\\node_modules\\npm\\bin\\npm-cli.js" "start"
19 error node v6.9.2
20 error npm  v4.1.1
21 error code ELIFECYCLE
22 error test-inferno@0.1.0 start: `inferno-scripts start`
22 error Exit status 3221225786
23 error Failed at the test-inferno@0.1.0 start script 'inferno-scripts start'.
23 error Make sure you have the latest version of node.js and npm installed.
23 error If you do, this is most likely a problem with the test-inferno package,
23 error not with npm itself.
23 error Tell the author that this fails on your system:
23 error     inferno-scripts start
23 error You can get information on how to open an issue for this project with:
23 error     npm bugs test-inferno
23 error Or if that isn't available, you can get their info via:
23 error     npm owner ls test-inferno
23 error There is likely additional logging output above.
24 verbose exit [ 1, true ]
